…
     4 B6      JetBlue Airways            
     5 DL      Delta Air Lines Inc.       
     6 EV      ExpressJet Airlines Inc.   
     7 F9      Frontier Airlines Inc.     
     8 FL      AirTran Airways Corporation
     9 HA      Hawaiian Airlines Inc.     
    10 MQ      Envoy Air                  
    11 OO      SkyWest Airlines Inc.      
    12 UA      United Air Lines Inc.      
    13 US      US Airways Inc.            
    14 VX      Virgin America             
    15 WN      Southwest Airlines Co.     
    16 YV      Mesa Airlines Inc.         
    > nycflights13::airports
    # A tibble: 1,458 × 8
       faa   name                             lat    lon   alt    tz dst   tzone              
       <chr> <chr>                          <dbl>  <dbl> <dbl> <dbl> <chr> <chr>              
     1 04G   Lansdowne Airport               41.1  -80.6  1044    -5 A     America/New_York   
     2 06A   Moton Field Municipal Airport   32.5  -85.7   264    -6 A     America/Chicago    
     3 06C   Schaumburg Regional             42.0  -88.1   801    -6 A     America/Chicago    
     4 06N   Randall Airport                 41.4  -74.4   523    -5 A     America/New_York   
     5 09J   Jekyll Island Airport           31.1  -81.4    11    -5 A     America/New_York   
     6 0A9   Elizabethton Municipal Airport  36.4  -82.2  1593    -5 A     America/New_York   
     7 0G6   Williams County Airport         41.5  -84.5   730    -5 A     America/New_York   
     8 0G7   Finger Lakes Regional Airport   42.9  -76.8   492    -5 A     America/New_York   
     9 0P2   Shoestring Aviation Airfield    39.8  -76.6  1000    -5 U     America/New_York   
    10 0S9   Jefferson County Intl           48.1 -123.    108    -8 A     America/Los_Angeles
    # ℹ 1,448 more rows
    # ℹ Use `print(n = ...)` to see more rows
    > nycflights13::flights
    # A tibble: 336,776 × 19
        year month   day dep_time sched_dep_time dep_delay arr_time sched_arr_time arr_delay carrier flight tailnum origin dest  air_time distance  hour
       <int> <int> <int>    <int>          <int>     <dbl>    <int>          <int>     <dbl> <chr>    <int> <chr>   <chr>  <chr>    <dbl>    <dbl> <dbl>
     1  2013     1     1      517            515         2      830            819        11 UA        1545 N14228  EWR    IAH        227     1400     5
     2  2013     1     1      533            529         4      850            830        20 UA        1714 N24211  LGA    IAH        227     1416     5
     3  2013     1     1      542            540         2      923            850        33 AA        1141 N619AA  JFK    MIA        160     1089     5
     4  2013     1     1      544            545        -1     1004           1022       -18 B6         725 N804JB  JFK    BQN        183     1576     5
     5  2013     1     1      554            600        -6      812            837       -25 DL         461 N668DN  LGA    ATL        116      762     6
     6  2013     1     1      554            558        -4      740            728        12 UA        1696 N39463  EWR    ORD        150      719     5
     7  2013     1     1      555            600        -5      913            854        19 B6         507 N516JB  EWR    FLL        158     1065     6
     8  2013     1     1      557            600        -3      709            723       -14 EV        5708 N829AS  LGA    IAD         53      229     6
     9  2013     1     1      557            600        -3      838            846        -8 B6          79 N593JB  JFK    MCO        140      944     6
    10  2013     1     1      558            600        -2      753            745         8 AA         301 N3ALAA  LGA    ORD        138      733     6
    # ℹ 336,766 more rows
    # ℹ 2 more variables: minute <dbl>, time_hour <dttm>
    # ℹ Use `print(n = ...)` to see more rows
    > nycflights13::planes
    # A tibble: 3,322 × 9
       tailnum  year type                    manufacturer     model     engines seats speed engine   
       <chr>   <int> <chr>                   <chr>            <chr>       <int> <int> <int> <chr>    
     1 N10156   2004 Fixed wing multi engine EMBRAER          EMB-145XR       2    55    NA Turbo-fan
     2 N102UW   1998 Fixed wing multi engine AIRBUS INDUSTRIE A320-214        2   182    NA Turbo-fan
     3 N103US   1999 Fixed wing multi engine AIRBUS INDUSTRIE A320-214        2   182    NA Turbo-fan
     4 N104UW   1999 Fixed wing multi engine AIRBUS INDUSTRIE A320-214        2   182    NA Turbo-fan
     5 N10575   2002 Fixed wing multi engine EMBRAER          EMB-145LR       2    55    NA Turbo-fan
     6 N105UW   1999 Fixed wing multi engine AIRBUS INDUSTRIE A320-214        2   182    NA Turbo-fan
     7 N107US   1999 Fixed wing multi engine AIRBUS INDUSTRIE A320-214        2   182    NA Turbo-fan
     8 N108UW   1999 Fixed wing multi engine AIRBUS INDUSTRIE A320-214        2   182    NA Turbo-fan
     9 N109UW   1999 Fixed wing multi engine AIRBUS INDUSTRIE A320-214        2   182    NA Turbo-fan
    10 N110UW   1999 Fixed wing multi engine AIRBUS INDUSTRIE A320-214        2   182    NA Turbo-fan
    # ℹ 3,312 more rows
    # ℹ Use `print(n = ...)` to see more rows
    > nycflights13::weather
    # A tibble: 26,115 × 15
       origin  year month   day  hour  temp  dewp humid wind_dir wind_speed wind_gust precip pressure visib time_hour          
       <chr>  <int> <int> <int> <int> <dbl> <dbl> <dbl>    <dbl>      <dbl>     <dbl>  <dbl>    <dbl> <dbl> <dttm>             
     1 EWR     2013     1     1     1  39.0  26.1  59.4      270      10.4         NA      0    1012     10 2013-01-01 01:00:00
     2 EWR     2013     1     1     2  39.0  27.0  61.6      250       8.06        NA      0    1012.    10 2013-01-01 02:00:00
     3 EWR     2013     1     1     3  39.0  28.0  64.4      240      11.5         NA      0    1012.    10 2013-01-01 03:00:00
     4 EWR     2013     1     1     4  39.9  28.0  62.2      250      12.7         NA      0    1012.    10 2013-01-01 04:00:00
     5 EWR     2013     1     1     5  39.0  28.0  64.4      260      12.7         NA      0    1012.    10 2013-01-01 05:00:00
     6 EWR     2013     1     1     6  37.9  28.0  67.2      240      11.5         NA      0    1012.    10 2013-01-01 06:00:00
     7 EWR     2013     1     1     7  39.0  28.0  64.4      240      15.0         NA      0    1012.    10 2013-01-01 07:00:00
     8 EWR     2013     1     1     8  39.9  28.0  62.2      250      10.4         NA      0    1012.    10 2013-01-01 08:00:00
     9 EWR     2013     1     1     9  39.9  28.0  62.2      260      15.0         NA      0    1013.    10 2013-01-01 09:00:00
    10 EWR     2013     1     1    10  41    28.0  59.6      260      13.8         NA      0    1012.    10 2013-01-01 10:00:00
    # ℹ 26,105 more rows
    # ℹ Use `print(n = ...)` to see more rows
…
